01a 00 000 00 001 # constante 1
01b 00 000 00 000 # var aux
01c 00 000 00 000 # soma parcial
01d 00 000 00 000
01e 00 000 00 000
01f 00 000 00 000

041 00 000 00 001
042 00 000 00 001
043 00 000 00 001
044 00 000 00 001
045 00 000 00 001
046 00 000 00 001
047 00 000 00 001
048 00 000 00 001
049 00 000 00 001
04A 00 000 00 001

04B 00 000 00 001
04C 00 000 00 001
04D 00 000 00 001
04E 00 000 00 001
04F 00 000 00 001
050 00 000 00 001
051 00 000 00 001
052 00 000 00 001
053 00 000 00 001
054 00 000 00 001

3FD 0000000041
3FE 000000004B 
3FF 000000000A
400 0007CB8677

000 01 3FD 12 002 #LOAD M(3FD), STOR M(X,8:19)
001 01 3FE 13 002 #LOAD M(3FE), STOR M(X,28:39)
002 0A 000 0B 000 #LOAD MQ, MUL
003 0A 000 05 01c #LOAD MQ, ADD
004 21 01c 0D 005

# Atualiza os endereços 
005 01 3FD 05 01a #LOAD M(3FD), ADD(01a)
006 21 3FD 0D 007 #STOR M(3FD), -
007 01 3FE 05 01a #LOAD M(3FE), ADD(01a)
008 21 3FD 01 3FF #STOR M(3FE), LOAD M(3FF)
009 06 01a 21 3FF #SUB M(01a), STOR(3FF)

00a 01 3FF 10 000 #LOAD M(3FF), JUMP+M(000)
00b 01 01c 0D 400 #JUMP M(400),
